{
  "project_info": {
    "project_number": "33866784009",
    "firebase_url": "https://adorable-pet-9de64.firebaseio.com",
    "project_id": "adorable-pet-9de64",
    "storage_bucket": "adorable-pet-9de64.appspot.com"
  },
  "client": [
    {
      "client_info": {
        "mobilesdk_app_id": "1:33866784009:android:7f13e3308047cbe0fd47d8",
        "android_client_info": {
          "package_name": "com.example.adorablepet"
        }
      },
      "oauth_client": [
        {
          "client_id": "33866784009-v5c024c7v0eatsqtc8hlfjou4avb5341.apps.googleusercontent.com",
          "client_type": 1,
          "android_info": {
            "package_name": "com.example.adorablepet",
            "certificate_hash": "e9d773caaf1d0fce4d2ef00cae492b2003282ae5"
          }
        },
        {
          "client_id": "33866784009-kck2u063fui8e77g5fll0qicjpflq5n9.apps.googleusercontent.com",
          "client_type": 1,
          "android_info": {
            "package_name": "com.example.adorablepet",
            "certificate_hash": "dc195a727fa35f6d86f6dbb6e0725f5529f1a144"
          }
        },
        {
          "client_id": "33866784009-o5d5igqp2ahfle9u9rkj2rt5bngv2n17.apps.googleusercontent.com",
          "client_type": 3
        }
      ],
      "api_key": [
        {
          "current_key": "AIzaSyAQuuOR0f5G8p61jGBk3UtHEUki06NpE3c"
        }
      ],
      "services": {
        "appinvite_service": {
          "other_platform_oauth_client": [
            {
              "client_id": "33866784009-o5d5igqp2ahfle9u9rkj2rt5bngv2n17.apps.googleusercontent.com",
              "client_type": 3
            }
          ]
        }
      }
    }
  ],
  "configuration_version": "1"
}
